2015   128   27609.000000   2.297947582120526e+06    2.297941993335301e+06   -7.076224752855870e-03    5.595861450000000e+00
2015   128   27619.000000   2.297906096898733e+06    2.297899425707930e+06   -6.451397245299946e-03    6.677642200000000e+00
2015   128   27629.000000   2.297863503559858e+06    2.297856848955296e+06   -5.871548774576566e-03    6.660476110000000e+00
2015   128   27639.000000   2.297820931684726e+06    2.297814263059856e+06   -5.334090644987025e-03    6.673958960000000e+00
2015   128   27649.000000   2.297778336271312e+06    2.297771668004007e+06   -4.836525010875507e-03    6.673103830000000e+00
2015   128   27659.000000   2.297735727788020e+06    2.297729063770084e+06   -4.376443509296182e-03    6.668394380000000e+00
2015   128   27669.000000   2.297693114725994e+06    2.297686450340360e+06   -3.951525892680297e-03    6.668337160000000e+00
2015   128   27679.000000   2.297650499433531e+06    2.297643827697040e+06   -3.559538661503284e-03    6.675296030000000e+00
2015   128   27689.000000   2.297607846345787e+06    2.297601195822260e+06   -3.198333696951847e-03    6.653721860000000e+00
2015   128   27699.000000   2.297565221362202e+06    2.297558554698089e+06   -2.865846893591067e-03    6.669529960000000e+00
2015   128   27709.000000   2.297522545241882e+06    2.297515904306518e+06   -2.560096792031495e-03    6.643495460000000e+00
2015   128   27719.000000   2.297479899577064e+06    2.297473244629467e+06   -2.279183211596255e-03    6.657226780000000e+00
2015   128   27729.000000   2.297437261076671e+06    2.297430575648776e+06   -2.021285882988132e-03    6.687449180000000e+00
2015   128   27739.000000   2.297394557125483e+06    2.297387897346206e+06   -1.784663080956681e-03    6.661563940000000e+00
2015   128   27749.000000   2.297351873085278e+06    2.297345209703438e+06   -1.567650256965315e-03    6.664949490000000e+00
2015   128   27759.000000   2.297309183858736e+06    2.297302512702065e+06   -1.368658671858411e-03    6.672525330000000e+00
2015   128   27769.000000   2.297266468254112e+06    2.297259806323596e+06   -1.186174028528395e-03    6.663116690000000e+00
2015   128   27779.000000   2.297223758354817e+06    2.297217090549452e+06   -1.018755104582856e-03    6.668824120000000e+00
2015   128   27789.000000   2.297181037755688e+06    2.297174365360961e+06   -8.650323850116282e-04    6.673259760000000e+00
2015   128   27799.000000   2.297138299205763e+06    2.297131630739359e+06   -7.237066948538980e-04    6.669190110000000e+00
2015   128   27809.000000   2.297095553721579e+06    2.297088886665787e+06   -5.935478318653009e-04    6.667649340000000e+00
2015   128   27819.000000   2.297052809977225e+06    2.297046133121288e+06   -4.733931991850112e-04    6.677329330000000e+00
2015   128   27829.000000   2.297010024532757e+06    2.297003370086804e+06   -3.621464380028470e-04    6.654808100000000e+00
2015   128   27839.000000   2.296967249744670e+06    2.296960597543175e+06   -2.587760602263720e-04    6.652460270000000e+00
2015   128   27849.000000   2.296924490315625e+06    2.296917815471139e+06   -1.623140811479761e-04    6.675006800000000e+00
2015   128   27859.000000   2.296881694293989e+06    2.296875023851324e+06   -7.185465211199194e-05    6.670514520000000e+00
2015   128   27869.000000   2.296838882951590e+06    2.296832222664252e+06   1.344730681821906e-05    6.660273890000000e+00
2015   128   27879.000000   2.296796085981389e+06    2.296789411890332e+06   9.437747419316793e-05    6.673996680000000e+00
2015   128   27889.000000   2.296753260828592e+06    2.296746591509859e+06   1.716634945101376e-04    6.669147070000000e+00
2015   128   27899.000000   2.296710409623200e+06    2.296703761503014e+06   2.459763455460842e-04    6.647874210000000e+00
2015   128   27909.000000   2.296667596154741e+06    2.296660921849859e+06   3.179317056905432e-04    6.673986950000000e+00
2015   128   27919.000000   2.296624738848839e+06    2.296618072530338e+06   3.880913212785362e-04    6.665930410000000e+00
2015   128   27929.000000   2.296581880669723e+06    2.296575213524268e+06   4.569643739234591e-04    6.666688490000000e+00
2015   128   27939.000000   2.296539023576606e+06    2.296532344811347e+06   5.250088478499984e-04    6.678240250000000e+00
2015   128   27949.000000   2.296496131927755e+06    2.296489466371142e+06   5.926328972270276e-04    6.664963980000000e+00
2015   128   27959.000000   2.296453236908648e+06    2.296446578183091e+06   6.601962135005148e-04    6.658065360000000e+00
2015   128   27969.000000   2.296410352787115e+06    2.296403680226503e+06   7.280113927264139e-04    6.671832600000000e+00
2015   128   27979.000000   2.296367434568747e+06    2.296360772480552e+06   7.963453029035803e-04    6.661291850000000e+00
2015   128   27989.000000   2.296324509295607e+06    2.296317854924276e+06   8.654204513066686e-04    6.653505910000000e+00
2015   128   27999.000000   2.296281587269940e+06    2.296274927536574e+06   9.354163518190288e-04    6.658797950000000e+00
2015   128   28009.000000   2.296238663523047e+06    2.296231990296206e+06   1.006470892265613e-03    6.672220370000000e+00
2015   128   28019.000000   2.296195715644251e+06    2.296189043181790e+06   1.078681701745890e-03    6.671383780000000e+00
2015   128   28029.000000   2.296152762562953e+06    2.296146086171796e+06   1.152107517966723e-03    6.675239050000000e+00
2015   128   28039.000000   2.296109793095659e+06    2.296103119244549e+06   1.226769554575301e-03    6.672624340000000e+00
2015   128   28049.000000   2.296066828102809e+06    2.296060142378226e+06   1.302652868492000e-03    6.684421930000000e+00
2015   128   28059.000000   2.296023833103267e+06    2.296017155550850e+06   1.379707727243349e-03    6.676172710000000e+00
2015   128   28069.000000   2.295980820051850e+06    2.295974158740290e+06   1.457850976294863e-03    6.659853710000000e+00
2015   128   28079.000000   2.295937815421737e+06    2.295931151924259e+06   1.536967406383995e-03    6.661960510000000e+00
2015   128   28089.000000   2.295894807374386e+06    2.295888135080315e+06   1.616911120853015e-03    6.670677160000000e+00
2015   128   28099.000000   2.295851771131896e+06    2.295845108185850e+06   1.697506902981918e-03    6.661248540000000e+00
2015   128   28109.000000   2.295808731956997e+06    2.295802071218096e+06   1.778551583321332e-03    6.658960350000000e+00
2015   128   28119.000000   2.295765697927956e+06    2.295759024154121e+06   1.859815407025411e-03    6.671914020000000e+00
2015   128   28129.000000   2.295722635332726e+06    2.295715966970822e+06   1.941043401184749e-03    6.666420860000000e+00
2015   128   28139.000000   2.295679560535707e+06    2.295672899644930e+06   2.021956742159261e-03    6.658868820000000e+00
2015   128   28149.000000   2.295636505242426e+06    2.295629822153002e+06   2.102254122911117e-03    6.680987170000000e+00
2015   128   28159.000000   2.295593407613695e+06    2.295586734471421e+06   2.181613120337622e-03    6.670960660000000e+00
2015   128   28169.000000   2.295550293945407e+06    2.295543636576395e+06   2.259691562604127e-03    6.655109320000000e+00
2015   128   28179.000000   2.295507188535610e+06    2.295500528443951e+06   2.336128896476892e-03    6.657755530000000e+00
2015   128   28189.000000   2.295464073994054e+06    2.295457410049937e+06   2.410547554656110e-03    6.661533570000000e+00
2015   128   28199.000000   2.295420932820152e+06    2.295414281370018e+06   2.482554323108627e-03    6.648967580000000e+00
2015   128   28209.000000   2.295377816996524e+06    2.295371142379672e+06   2.551741708401023e-03    6.672065110000000e+00
2015   128   28219.000000   2.295334667826939e+06    2.295327993054190e+06   2.617689305032374e-03    6.672155060000000e+00
2015   128   28229.000000   2.295291503761769e+06    2.295284833368674e+06   2.679965162767248e-03    6.667713130000000e+00
2015   128   28239.000000   2.295248330958791e+06    2.295241663298034e+06   2.738127153968567e-03    6.664922630000000e+00
2015   128   28249.000000   2.295205153380757e+06    2.295198482816983e+06   2.791724340930497e-03    6.667772050000000e+00
2015   128   28259.000000   2.295161960348657e+06    2.295155291900039e+06   2.840298343211416e-03    6.665608320000000e+00
2015   128   28269.000000   2.295118776013608e+06    2.295112090521523e+06   2.883384704966704e-03    6.682608700000000e+00
2015   128   28279.000000   2.295075542903476e+06    2.295068878655552e+06   2.920514262281777e-03    6.661327410000000e+00
2015   128   28289.000000   2.295032317383076e+06    2.295025656276041e+06   2.951214510504892e-03    6.658155820000000e+00
2015   128   28299.000000   2.294989092448360e+06    2.294982423356699e+06   2.975010971580073e-03    6.666116650000000e+00
2015   128   28309.000000   2.294945845547936e+06    2.294939179871027e+06   2.991428561380050e-03    6.662685480000000e+00
2015   128   28319.000000   2.294902602586040e+06    2.294895925792317e+06   2.999992957039094e-03    6.673793730000000e+00
2015   128   28329.000000   2.294859339939278e+06    2.294852661093646e+06   3.000231964285981e-03    6.675845400000000e+00
2015   128   28339.000000   2.294816049431656e+06    2.294809385747880e+06   2.991676884776919e-03    6.660692100000000e+00
2015   128   28349.000000   2.294772774685808e+06    2.294766099727664e+06   2.973863883428325e-03    6.671984280000000e+00
2015   128   28359.000000   2.294729472318812e+06    2.294722803005427e+06   2.946335355749846e-03    6.666367050000000e+00
2015   128   28369.000000   2.294686153279518e+06    2.294679495553376e+06   2.908641295177214e-03    6.654817500000000e+00
2015   128   28379.000000   2.294642848295674e+06    2.294636177343493e+06   2.860340660405169e-03    6.668091840000000e+00
2015   128   28389.000000   2.294599524901990e+06    2.294592848347537e+06   2.801002742720380e-03    6.673753450000000e+00
2015   128   28399.000000   2.294556193784133e+06    2.294549508537035e+06   2.730208533334205e-03    6.682516890000000e+00
2015   128   28409.000000   2.294512815236587e+06    2.294506157883285e+06   2.647552090715808e-03    6.654705750000000e+00
2015   128   28419.000000   2.294469465930517e+06    2.294462796357355e+06   2.552641907924929e-03    6.667020520000000e+00
2015   128   28429.000000   2.294426090194098e+06    2.294419423930075e+06   2.445102279944826e-03    6.663818920000000e+00
2015   128   28439.000000   2.294382714685504e+06    2.294376040572039e+06   2.324574671015146e-03    6.671788890000000e+00
2015   128   28449.000000   2.294339315697381e+06    2.294332646253602e+06   2.190719081964887e-03    6.667253060000000e+00
2015   128   28459.000000   2.294295905713272e+06    2.294289240944876e+06   2.043215417545215e-03    6.662725180000000e+00
2015   128   28469.000000   2.294252485340946e+06    2.294245824615731e+06   1.881764853762439e-03    6.658843450000000e+00
2015   128   28479.000000   2.294209078542790e+06    2.294202397235789e+06   1.706091205210840e-03    6.679600910000000e+00
2015   128   28489.000000   2.294165634797478e+06    2.294158958774426e+06   1.515942292405741e-03    6.674507110000000e+00
2015   128   28499.000000   2.294122168818945e+06    2.294115509200763e+06   1.311091309116171e-03    6.658307090000000e+00
2015   128   28509.000000   2.294078722780372e+06    2.294072048483674e+06   1.091338189697949e-03    6.673205360000000e+00
2015   128   28519.000000   2.294035234801455e+06    2.294028576591774e+06   8.565109764265263e-04    6.657353170000000e+00
2015   128   28529.000000   2.293991759435138e+06    2.293985093493421e+06   6.064671868298368e-04    6.665335250000000e+00
2015   128   28539.000000   2.293948270787409e+06    2.293941599156714e+06   3.410951810213293e-04    6.671289600000000e+00
2015   128   28549.000000   2.293904763161836e+06    2.293898093549490e+06   6.031552903272673e-05    6.669552030000000e+00
2015   128   28559.000000   2.293861214912945e+06    2.293854576639323e+06   -2.359176218530325e-04    6.638509540000000e+00
2015   128   28569.000000   2.293817713682912e+06    2.293811048393518e+06   -5.476151797687486e-04    6.665837010000000e+00
2015   128   28579.000000   2.293774196950552e+06    2.293767508779113e+06   -8.747517409303691e-04    6.689046190000000e+00
2015   128   28589.000000   2.293730637150742e+06    2.293723957762877e+06   -1.217264222303616e-03    6.680605130000000e+00
2015   128   28599.000000   2.293687065926191e+06    2.293680395311301e+06   -1.575050494271612e-03    6.672189940000000e+00
2015   128   28609.000000   2.293643488079038e+06    2.293636821390606e+06   -1.947968013301614e-03    6.668636400000000e+00
2015   128   28619.000000   2.293599884059500e+06    2.293593235966732e+06   -2.335832454612263e-03    6.650428600000000e+00
2015   128   28629.000000   2.293556283238314e+06    2.293549639005340e+06   -2.738416344840564e-03    6.646971390000000e+00
2015   128   28639.000000   2.293512698285942e+06    2.293506030471809e+06   -3.155447694709226e-03    6.670969580000000e+00
2015   128   28649.000000   2.293469062597056e+06    2.293462410331234e+06   -3.586608631693375e-03    6.655852430000000e+00
2015   128   28659.000000   2.293425444049079e+06    2.293418778548423e+06   -4.031534032688021e-03    6.669532190000000e+00
2015   128   28669.000000   2.293381786042924e+06    2.293375135087894e+06   -4.489810156675052e-03    6.655444840000000e+00
2015   128   28679.000000   2.293338150699353e+06    2.293331479913876e+06   -4.960973277390055e-03    6.675746450000000e+00
2015   128   28689.000000   2.293294485659005e+06    2.293287812990304e+06   -5.444508315989847e-03    6.678113210000000e+00
2015   128   28699.000000   2.293250796372878e+06    2.293244134280815e+06   -5.939847473719376e-03    6.668031910000000e+00
2015   128   28709.000000   2.293207108282164e+06    2.293200443748753e+06   -6.446368864578655e-03    6.670979780000000e+00
2015   128   28719.000000   2.293163412442923e+06    2.293156741357157e+06   -6.963395147990154e-03    6.678049160000000e+00
2015   128   28729.000000   2.293119701583865e+06    2.293113027068767e+06   -7.490192161465724e-03    6.682005290000000e+00
2015   128   28737.000000   2.293084708998494e+06    2.293078047047128e+06   -7.918134227603416e-03    6.669869500000000e+00
2015   128   28842.000000   2.292618190516118e+06    2.292618265233518e+06   0.000000000000000e+00    -7.471740000000000e-02
2015   128   28863.000000   2.292526140382711e+06    2.292526141731071e+06   0.000000000000000e+00    -1.348360000000000e-03
2015   128   28873.000000   2.292482238956273e+06    2.292482254922342e+06   0.000000000000000e+00    -1.596607000000000e-02
2015   128   28883.000000   2.292438358274898e+06    2.292438356130658e+06   0.000000000000000e+00    2.144240000000000e-03
2015   128   28893.000000   2.292394447393057e+06    2.292394445309627e+06   0.000000000000000e+00    2.083430000000000e-03
2015   128   28903.000000   2.292350536575898e+06    2.292350522413248e+06   0.000000000000000e+00    1.416265000000000e-02
2015   128   28913.000000   2.292306593155186e+06    2.292306587395906e+06   0.000000000000000e+00    5.759280000000000e-03
2015   128   28923.000000   2.292262639730000e+06    2.292262640212360e+06   0.000000000000000e+00    -4.823600000000000e-04
2015   128   28933.000000   2.292218687731081e+06    2.292218680817741e+06   0.000000000000000e+00    6.913340000000000e-03
2015   128   28943.000000   2.292174705691380e+06    2.292174709167540e+06   0.000000000000000e+00    -3.476160000000000e-03
2015   128   28953.000000   2.292130739646566e+06    2.292130725217605e+06   0.000000000000000e+00    1.442896000000000e-02
2015   128   28963.000000   2.292086730498373e+06    2.292086728924133e+06   0.000000000000000e+00    1.574240000000000e-03
2015   128   28973.000000   2.292042703955810e+06    2.292042720243660e+06   0.000000000000000e+00    -1.628785000000000e-02
2015   128   28983.000000   2.291998687288620e+06    2.291998699133059e+06   0.000000000000000e+00    -1.184444000000000e-02
2015   128   28993.000000   2.291954651477378e+06    2.291954665549528e+06   0.000000000000000e+00    -1.407215000000000e-02
2015   128   29003.000000   2.291910614472596e+06    2.291910619450586e+06   0.000000000000000e+00    -4.977990000000000e-03
2015   128   29013.000000   2.291866565070414e+06    2.291866560794064e+06   0.000000000000000e+00    4.276350000000000e-03
2015   128   29023.000000   2.291822479611520e+06    2.291822489538100e+06   0.000000000000000e+00    -9.926580000000001e-03
2015   128   29033.000000   2.291778393705081e+06    2.291778405641131e+06   0.000000000000000e+00    -1.193605000000000e-02
2015   128   29043.000000   2.291734326273053e+06    2.291734309061883e+06   0.000000000000000e+00    1.721117000000000e-02
2015   128   29053.000000   2.291690188195121e+06    2.291690199759371e+06   0.000000000000000e+00    -1.156425000000000e-02
2015   128   29063.000000   2.291646091631413e+06    2.291646077692884e+06   0.000000000000000e+00    1.393853000000000e-02
2015   128   29073.000000   2.291601960009802e+06    2.291601942821982e+06   0.000000000000000e+00    1.718782000000000e-02
2015   128   29083.000000   2.291557801857829e+06    2.291557795106489e+06   0.000000000000000e+00    6.751340000000000e-03
2015   128   29093.000000   2.291513643437027e+06    2.291513634506486e+06   0.000000000000000e+00    8.930540000000001e-03
2015   128   29103.000000   2.291469458008402e+06    2.291469460982303e+06   0.000000000000000e+00    -2.973900000000000e-03
2015   128   29113.000000   2.291425262376339e+06    2.291425274494509e+06   0.000000000000000e+00    -1.211817000000000e-02
2015   128   29123.000000   2.291381084824303e+06    2.291381075003913e+06   0.000000000000000e+00    9.820390000000000e-03
2015   128   29133.000000   2.291336866274757e+06    2.291336862471547e+06   0.000000000000000e+00    3.803210000000000e-03
2015   128   29143.000000   2.291292657786349e+06    2.291292636858669e+06   0.000000000000000e+00    2.092768000000000e-02
2015   128   29153.000000   2.291248400234175e+06    2.291248398126746e+06   0.000000000000000e+00    2.107430000000000e-03
2015   128   29163.000000   2.291204126065564e+06    2.291204146237454e+06   0.000000000000000e+00    -2.017189000000000e-02
2015   128   29173.000000   2.291159865591148e+06    2.291159881152669e+06   0.000000000000000e+00    -1.556152000000000e-02
2015   128   29183.000000   2.291115606567837e+06    2.291115602834457e+06   0.000000000000000e+00    3.733380000000000e-03
2015   128   29193.000000   2.291071310663054e+06    2.291071311245074e+06   0.000000000000000e+00    -5.820200000000000e-04
2015   128   29203.000000   2.291027007568618e+06    2.291027006346948e+06   0.000000000000000e+00    1.221670000000000e-03
2015   128   29213.000000   2.290982679579056e+06    2.290982688102686e+06   0.000000000000000e+00    -8.523630000000001e-03
2015   128   29223.000000   2.290938345360091e+06    2.290938356475051e+06   0.000000000000000e+00    -1.111496000000000e-02
2015   128   29233.000000   2.290894012042820e+06    2.290894011426970e+06   0.000000000000000e+00    6.158500000000000e-04
2015   128   29243.000000   2.290849649017965e+06    2.290849652921516e+06   0.000000000000000e+00    -3.903550000000000e-03
2015   128   29253.000000   2.290805273655115e+06    2.290805280921905e+06   0.000000000000000e+00    -7.266790000000000e-03
2015   128   29263.000000   2.290760901396081e+06    2.290760895391491e+06   0.000000000000000e+00    6.004590000000000e-03
2015   128   29273.000000   2.290716493888686e+06    2.290716496293756e+06   0.000000000000000e+00    -2.405070000000000e-03
2015   128   29283.000000   2.290672087005181e+06    2.290672083592301e+06   0.000000000000000e+00    3.412880000000000e-03
2015   128   29293.000000   2.290627661919916e+06    2.290627657250846e+06   0.000000000000000e+00    4.669070000000000e-03
2015   128   29303.000000   2.290583214519646e+06    2.290583217233216e+06   0.000000000000000e+00    -2.713570000000000e-03
2015   128   29313.000000   2.290538772552266e+06    2.290538763503336e+06   0.000000000000000e+00    9.048930000000000e-03
2015   128   29323.000000   2.290494305512785e+06    2.290494296025225e+06   0.000000000000000e+00    9.487560000000001e-03
2015   128   29333.000000   2.290449814622259e+06    2.290449814762989e+06   0.000000000000000e+00    -1.407300000000000e-04
2015   128   29343.000000   2.290405323379791e+06    2.290405319680811e+06   0.000000000000000e+00    3.698980000000000e-03
2015   128   29353.000000   2.290360808614979e+06    2.290360810742950e+06   0.000000000000000e+00    -2.127970000000000e-03
2015   128   29363.000000   2.290316301917115e+06    2.290316287913725e+06   0.000000000000000e+00    1.400339000000000e-02
2015   128   29373.000000   2.290271755651717e+06    2.290271751157517e+06   0.000000000000000e+00    4.494200000000000e-03
2015   128   29383.000000   2.290227197409875e+06    2.290227200438755e+06   0.000000000000000e+00    -3.028880000000000e-03
2015   128   29393.000000   2.290182627781725e+06    2.290182635721914e+06   0.000000000000000e+00    -7.940190000000000e-03
2015   128   29403.000000   2.290138062469205e+06    2.290138056971505e+06   0.000000000000000e+00    5.497700000000000e-03
2015   128   29413.000000   2.290093471003517e+06    2.290093464152067e+06   0.000000000000000e+00    6.851450000000000e-03
2015   128   29423.000000   2.290048851766172e+06    2.290048857228162e+06   0.000000000000000e+00    -5.461990000000000e-03
2015   128   29433.000000   2.290004213341201e+06    2.290004236164371e+06   0.000000000000000e+00    -2.282317000000000e-02
2015   128   29443.000000   2.289959590893608e+06    2.289959600925277e+06   0.000000000000000e+00    -1.003167000000000e-02
2015   128   29453.000000   2.289914951970900e+06    2.289914951475470e+06   0.000000000000000e+00    4.954300000000000e-04
2015   128   29463.000000   2.289870302446481e+06    2.289870287779531e+06   0.000000000000000e+00    1.466695000000000e-02
2015   128   29473.000000   2.289825614310459e+06    2.289825609802029e+06   0.000000000000000e+00    4.508430000000000e-03
2015   128   29483.000000   2.289780910881702e+06    2.289780917507512e+06   0.000000000000000e+00    -6.625810000000000e-03
2015   128   29493.000000   2.289736208723823e+06    2.289736210860503e+06   0.000000000000000e+00    -2.136680000000000e-03
2015   128   29503.000000   2.289691490172169e+06    2.289691489825489e+06   0.000000000000000e+00    3.466800000000000e-04
2015   128   29513.000000   2.289646764534925e+06    2.289646754366915e+06   0.000000000000000e+00    1.016801000000000e-02
2015   128   29523.000000   2.289601997638360e+06    2.289602004449180e+06   0.000000000000000e+00    -6.810820000000000e-03
2015   128   29533.000000   2.289557234943237e+06    2.289557240036627e+06   0.000000000000000e+00    -5.093390000000000e-03
2015   128   29543.000000   2.289512458797265e+06    2.289512461093535e+06   0.000000000000000e+00    -2.296270000000000e-03
2015   128   29553.000000   2.289467660160645e+06    2.289467667584115e+06   0.000000000000000e+00    -7.423470000000000e-03
2015   128   29563.000000   2.289422863971959e+06    2.289422859472499e+06   0.000000000000000e+00    4.499460000000000e-03
2015   128   29573.000000   2.289378035346639e+06    2.289378036722739e+06   0.000000000000000e+00    -1.376100000000000e-03
2015   128   29583.000000   2.289333202027782e+06    2.289333199298793e+06   0.000000000000000e+00    2.728990000000000e-03
2015   128   29593.000000   2.289288336274511e+06    2.289288347164521e+06   0.000000000000000e+00    -1.089001000000000e-02
2015   128   29603.000000   2.289243486392580e+06    2.289243480283680e+06   0.000000000000000e+00    6.108900000000000e-03
2015   128   29613.000000   2.289198594662464e+06    2.289198598619914e+06   0.000000000000000e+00    -3.957450000000000e-03
2015   128   29623.000000   2.289153698521397e+06    2.289153702136747e+06   0.000000000000000e+00    -3.615350000000000e-03
2015   128   29633.000000   2.289108799071518e+06    2.289108790797578e+06   0.000000000000000e+00    8.273940000000000e-03
2015   128   29643.000000   2.289063871910261e+06    2.289063864565671e+06   0.000000000000000e+00    7.344590000000000e-03
2015   128   29653.000000   2.289018928911821e+06    2.289018923404152e+06   0.000000000000000e+00    5.507670000000000e-03
2015   128   29663.000000   2.288973966809757e+06    2.288973967275997e+06   0.000000000000000e+00    -4.662400000000000e-04
2015   128   29673.000000   2.288928997533478e+06    2.288928996144028e+06   0.000000000000000e+00    1.389450000000000e-03
2015   128   29683.000000   2.288884019400456e+06    2.288884009970906e+06   0.000000000000000e+00    9.429550000000000e-03
2015   128   29693.000000   2.288839001250464e+06    2.288839008719124e+06   0.000000000000000e+00    -7.468660000000000e-03
2015   128   29703.000000   2.288793989276706e+06    2.288793992350996e+06   0.000000000000000e+00    -3.074290000000000e-03
2015   128   29713.000000   2.288748977057217e+06    2.288748960828657e+06   0.000000000000000e+00    1.622856000000000e-02
2015   128   29723.000000   2.288703918389958e+06    2.288703914114048e+06   0.000000000000000e+00    4.275910000000000e-03
2015   128   29733.000000   2.288658868049116e+06    2.288658852168916e+06   0.000000000000000e+00    1.588020000000000e-02
2015   128   29743.000000   2.288613768977273e+06    2.288613774954803e+06   0.000000000000000e+00    -5.977530000000000e-03
2015   128   29753.000000   2.288568670231008e+06    2.288568682433038e+06   0.000000000000000e+00    -1.220203000000000e-02
2015   128   29763.000000   2.288523559663734e+06    2.288523574564734e+06   0.000000000000000e+00    -1.490100000000000e-02
2015   128   29773.000000   2.288478462495188e+06    2.288478451310778e+06   0.000000000000000e+00    1.118441000000000e-02
2015   128   29783.000000   2.288433303790092e+06    2.288433312631822e+06   0.000000000000000e+00    -8.841730000000001e-03
2015   128   29793.000000   2.288388156101422e+06    2.288388158488282e+06   0.000000000000000e+00    -2.386860000000000e-03
2015   128   29803.000000   2.288342975440945e+06    2.288342988840325e+06   0.000000000000000e+00    -1.339938000000000e-02
2015   128   29813.000000   2.288297800834834e+06    2.288297803647864e+06   0.000000000000000e+00    -2.813030000000000e-03
2015   128   29823.000000   2.288252584036693e+06    2.288252602870553e+06   0.000000000000000e+00    -1.883386000000000e-02
2015   128   29833.000000   2.288207386398547e+06    2.288207386467777e+06   0.000000000000000e+00    -6.923000000000000e-05
2015   128   29843.000000   2.288162158732774e+06    2.288162154398644e+06   0.000000000000000e+00    4.334130000000000e-03
2015   128   29853.000000   2.288116916524484e+06    2.288116906621984e+06   0.000000000000000e+00    9.902500000000000e-03
2015   128   29863.000000   2.288071651584904e+06    2.288071643096334e+06   0.000000000000000e+00    8.488570000000001e-03
2015   128   29873.000000   2.288026373508407e+06    2.288026363779937e+06   0.000000000000000e+00    9.728469999999999e-03
2015   128   29883.000000   2.287981075890381e+06    2.287981068630731e+06   0.000000000000000e+00    7.259650000000000e-03
2015   128   29893.000000   2.287935760008835e+06    2.287935757606345e+06   0.000000000000000e+00    2.402490000000000e-03
2015   128   29903.000000   2.287890432977349e+06    2.287890430664089e+06   0.000000000000000e+00    2.313260000000000e-03
2015   128   29913.000000   2.287845088542039e+06    2.287845087760949e+06   0.000000000000000e+00    7.810900000000000e-04
2015   128   29923.000000   2.287799717829761e+06    2.287799728853581e+06   0.000000000000000e+00    -1.102382000000000e-02
2015   128   29933.000000   2.287754346960318e+06    2.287754353898298e+06   0.000000000000000e+00    -6.937980000000000e-03
2015   128   29939.000000   2.287727124693068e+06    2.287727121203828e+06   0.000000000000000e+00    3.489240000000000e-03
2015   128   30005.500000   2.287425172267253e+06    2.287424880279147e+06   2.624296347967902e-03    2.893638100000000e-01
2015   128   30022.500000   2.287347331686828e+06    2.287347507155302e+06   2.142886061924661e-03    -1.776113600000000e-01
2015   128   30044.000000   2.287249585677583e+06    2.287249583495870e+06   1.470372997391211e-03    7.113400000000000e-04
2015   128   30054.000000   2.287204017055839e+06    2.287204011121719e+06   1.135390789131743e-03    4.798730000000000e-03
2015   128   30064.000000   2.287158416912230e+06    2.287158421891344e+06   7.876155655650920e-04    -5.766730000000000e-03
2015   128   30074.000000   2.287112814221006e+06    2.287112815775144e+06   4.281020479838020e-04    -1.982240000000000e-03
2015   128   30084.000000   2.287067194846498e+06    2.287067192742818e+06   5.800100896343710e-05    2.045680000000000e-03
2015   128   30094.000000   2.287021550093229e+06    2.287021552763378e+06   -3.214384384867380e-04    -2.348710000000000e-03
2015   128   30104.000000   2.286975885771156e+06    2.286975895805163e+06   -7.088665517817037e-04    -9.325140000000001e-03
2015   128   30114.000000   2.286930212416484e+06    2.286930221835844e+06   -1.102830669609540e-03    -8.316530000000001e-03
2015   128   30124.000000   2.286884529883977e+06    2.286884530822441e+06   -1.501772922789200e-03    5.633100000000000e-04
2015   128   30134.000000   2.286838829753858e+06    2.286838822731326e+06   -1.904027945118782e-03    8.926560000000000e-03
2015   128   30144.000000   2.286793091080402e+06    2.286793097528242e+06   -2.307820584234422e-03    -4.140020000000000e-03
2015   128   30154.000000   2.286747356668934e+06    2.286747355178307e+06   -2.711263612458320e-03    4.201890000000000e-03
2015   128   30164.000000   2.286701593641624e+06    2.286701595646029e+06   -3.112355437655913e-03    1.107950000000000e-03
2015   128   30174.000000   2.286655824575464e+06    2.286655818895312e+06   -3.508977814087213e-03    9.189130000000000e-03
2015   128   30184.000000   2.286610027980088e+06    2.286610024889472e+06   -3.898893553261319e-03    6.989510000000000e-03
2015   128   30194.000000   2.286564222332030e+06    2.286564213591245e+06   -4.279744234787492e-03    1.302053000000000e-02
2015   128   30204.000000   2.286518380325168e+06    2.286518384962796e+06   -4.649047917231986e-03    1.142000000000000e-05
2015   128   30214.000000   2.286472529056296e+06    2.286472538965733e+06   -5.004196848968042e-03    -4.905240000000000e-03
2015   128   30224.000000   2.286426666189920e+06    2.286426675561115e+06   -5.342455179031790e-03    -4.028740000000000e-03
2015   128   30234.000000   2.286380793903399e+06    2.286380794709466e+06   -5.660956667972610e-03    4.854890000000000e-03
2015   128   30244.000000   2.286334894589067e+06    2.286334896370780e+06   -5.956702398709809e-03    4.174990000000000e-03
2015   128   30254.000000   2.286288969683248e+06    2.286288980504537e+06   -6.226558487384013e-03    -4.594730000000000e-03
2015   128   30264.000000   2.286243036351247e+06    2.286243047069711e+06   -6.467253794209907e-03    -4.251210000000000e-03
2015   128   30274.000000   2.286197075353414e+06    2.286197096024781e+06   -6.675377634331386e-03    -1.399599000000000e-02
2015   128   30284.000000   2.286151111886227e+06    2.286151127327744e+06   -6.847377488673637e-03    -8.594140000000000e-03
2015   128   30294.000000   2.286105129749015e+06    2.286105140936122e+06   -6.979556714795945e-03    -4.207550000000000e-03
2015   128   30304.000000   2.286059120539630e+06    2.286059136806972e+06   -7.068072257747337e-03    -9.199270000000001e-03
2015   128   30314.000000   2.286013114243961e+06    2.286013114896904e+06   -7.108932360916896e-03    6.455990000000000e-03
2015   128   30324.000000   2.285967061285997e+06    2.285967075162082e+06   -7.097994276889057e-03    -6.778090000000000e-03
2015   128   30334.000000   2.285921015786298e+06    2.285921017558240e+06   -7.030961978296782e-03    5.259020000000000e-03
2015   128   30344.000000   2.285874933405091e+06    2.285874942040694e+06   -6.903383868674059e-03    -1.732220000000000e-03
2015   128   30354.000000   2.285828846030569e+06    2.285828848564349e+06   -6.710650493309375e-03    4.176870000000000e-03
2015   128   30364.000000   2.285782723859788e+06    2.285782737083711e+06   -6.447992250099366e-03    -6.775930000000000e-03
2015   128   30374.000000   2.285736606680410e+06    2.285736607552897e+06   -6.110477100403264e-03    5.237990000000000e-03
2015   128   30384.000000   2.285690462597590e+06    2.285690459925648e+06   -5.693008279892569e-03    8.364949999999999e-03
2015   128   30394.000000   2.285644292493516e+06    2.285644294155338e+06   -5.190322009409731e-03    3.528500000000000e-03
2015   128   30404.000000   2.285598118046747e+06    2.285598110194982e+06   -4.596985205815359e-03    1.244875000000000e-02
2015   128   30414.000000   2.285551912075430e+06    2.285551907997253e+06   -3.907393192848073e-03    7.985570000000001e-03
2015   128   30424.000000   2.285505685364530e+06    2.285505687514488e+06   -3.115767411970834e-03    9.658100000000000e-04
2015   128   30434.000000   2.285459454442653e+06    2.285459448698696e+06   -2.216153133231475e-03    7.960109999999999e-03
2015   128   30444.000000   2.285413184627840e+06    2.285413191501577e+06   -1.202417166109429e-03    -5.671320000000000e-03
2015   128   30454.000000   2.285366903841142e+06    2.285366915874527e+06   -6.824557037354285e-05    -1.196514000000000e-02
2015   128   30464.000000   2.285320625581045e+06    2.285320621768646e+06   1.192858633066356e-03    2.619540000000000e-03
2015   128   30474.000000   2.285274308169135e+06    2.285274309134758e+06   2.587577751306244e-03    -3.553200000000000e-03
2015   128   30484.000000   2.285227984874961e+06    2.285227977923410e+06   4.122781708593809e-03    2.828770000000000e-03
2015   128   30494.000000   2.285181625286292e+06    2.285181628084892e+06   5.805530335475658e-03    -8.604130000000000e-03
2015   128   30504.000000   2.285135265786689e+06    2.285135259569244e+06   7.643075657944777e-03    -1.425630000000000e-03
2015   128   30514.000000   2.285088886539289e+06    2.285088872326265e+06   9.642864186585264e-03    4.570160000000000e-03
2015   128   30524.000000   2.285042478429437e+06    2.285042466305527e+06   1.181253920572103e-02    3.113700000000000e-04
2015   128   30534.000000   2.284996052959147e+06    2.284996041456384e+06   1.415994306256133e-02    -2.657180000000000e-03
2015   128   30544.000000   2.284949607339921e+06    2.284949597727982e+06   1.669311945634664e-02    -7.081180000000000e-03
2015   128   30554.000000   2.284903163487076e+06    2.284903135069270e+06   1.942031572749879e-02    8.997490000000000e-03
2015   128   30564.000000   2.284856672971168e+06    2.284856653429013e+06   2.234998514676219e-02    -2.807830000000000e-03
2015   128   30574.000000   2.284810178143747e+06    2.284810152755798e+06   2.549078920435746e-02    -1.028400000000000e-04
2015   128   30584.000000   2.284763661444030e+06    2.284763632998050e+06   2.885159989911963e-02    -4.056200000000000e-04
2015   128   30594.000000   2.284717119971919e+06    2.284717094104037e+06   3.244150202765377e-02    -6.573620000000000e-03
2015   128   30604.000000   2.284670575835642e+06    2.284670536021886e+06   3.626979547347537e-02    3.543960000000000e-03
2015   128   30614.000000   2.284624001024848e+06    2.284623958699591e+06   4.034599749615840e-02    1.979260000000000e-03
2015   128   30624.000000   2.284577409600078e+06    2.284577362085023e+06   4.467984502048417e-02    2.835210000000000e-03
2015   128   30634.000000   2.284530798341578e+06    2.284530746125941e+06   4.928129692558510e-02    2.934340000000000e-03
2015   128   30644.000000   2.284484170395372e+06    2.284484110770005e+06   5.416053633409320e-02    5.464830000000000e-03
2015   128   30654.000000   2.284437509817217e+06    2.284437455964784e+06   5.932797290128749e-02    -5.475540000000000e-03
2015   128   30664.000000   2.284390842319201e+06    2.284390781657766e+06   6.479424510423751e-02    -4.132810000000000e-03
2015   128   30674.000000   2.284344164716115e+06    2.284344087796373e+06   7.057022253095425e-02    6.349520000000000e-03
2015   128   30684.000000   2.284297441426395e+06    2.284297374327966e+06   7.666700816953330e-02    -9.568580000000000e-03
2015   128   30694.000000   2.284250721160351e+06    2.284250641199861e+06   8.309594069730150e-02    -3.135450000000000e-03
2015   128   30704.000000   2.284203978513741e+06    2.284203888359334e+06   8.986859676996857e-02    2.858100000000000e-04
2015   128   30714.000000   2.284157218505051e+06    2.284157115753638e+06   9.699679331076615e-02    5.754620000000000e-03
2015   128   30724.000000   2.284110424434107e+06    2.284110323330007e+06   1.044925897996035e-01    -3.388490000000000e-03
2015   128   30734.000000   2.284063623320674e+06    2.284063511035673e+06   1.123682905622023e-01    -8.329000000000000e-05
2015   128   30744.000000   2.284016807727039e+06    2.284016678817872e+06   1.206364470592564e-01    8.272720000000001e-03
2015   128   30754.000000   2.283969956122317e+06    2.283969826623857e+06   1.293098601755706e-01    1.886000000000000e-04
2015   128   30764.000000   2.283923090609690e+06    2.283922954400907e+06   1.384015825092075e-01    -2.192800000000000e-03
2015   128   30774.000000   2.283876210929590e+06    2.283876062096340e+06   1.479249206606381e-01    9.083300000000001e-04
2015   128   30784.000000   2.283829297920817e+06    2.283829149657520e+06   1.578934375218844e-01    -9.630140000000001e-03
2015   128   30794.000000   2.283782373769377e+06    2.283782217031872e+06   1.683209545656678e-01    -1.158345000000000e-02
2015   128   30804.000000   2.283735445719074e+06    2.283735264166889e+06   1.792215541345585e-01    2.330630000000000e-03
2015   128   30814.000000   2.283688486634178e+06    2.283688291010146e+06   1.906095817301160e-01    5.014450000000000e-03
2015   128   30824.000000   2.283641494603766e+06    2.283641297509308e+06   2.024996483020421e-01    -5.405190000000000e-03
2015   128   30834.000000   2.283594497738582e+06    2.283594283612140e+06   2.149066325373238e-01    -7.801900000000001e-04
2015   128   30844.000000   2.283547479582533e+06    2.283547249266520e+06   2.278456831493792e-01    2.470330000000000e-03
2015   128   30854.000000   2.283500442021662e+06    2.283500194420450e+06   2.413322211672103e-01    6.268990000000000e-03
2015   128   30864.000000   2.283453388851527e+06    2.283453119022064e+06   2.553819422245397e-01    1.444752000000000e-02
2015   128   30874.000000   2.283406298628660e+06    2.283406023019641e+06   2.700108188489697e-01    5.598200000000000e-03
2015   128   30884.000000   2.283359196317166e+06    2.283358906361613e+06   2.852351027511147e-01    4.720450000000000e-03
2015   128   30894.000000   2.283312071983366e+06    2.283311768996579e+06   3.010713271137624e-01    1.915460000000000e-03
2015   128   30904.000000   2.283264929161722e+06    2.283264610873314e+06   3.175363088810096e-01    7.521000000000000e-04
2015   128   30914.000000   2.283217776181578e+06    2.283217431940777e+06   3.346471510474130e-01    9.593650000000000e-03
2015   128   30924.000000   2.283170580771874e+06    2.283170232148129e+06   3.524212449471378e-01    -3.797500000000000e-03
2015   128   30934.000000   2.283123368275866e+06    2.283123011444733e+06   3.708762725430992e-01    -1.404514000000000e-02
2015   128   30944.000000   2.283076152708896e+06    2.283075769780177e+06   3.900302087161138e-01    -7.101490000000000e-03
2015   128   30954.000000   2.283028910985976e+06    2.283028507104273e+06   4.099013235540466e-01    -6.019620000000000e-03
2015   128   30964.000000   2.282981649090710e+06    2.282981223367075e+06   4.305081846409533e-01    -4.784550000000000e-03
2015   128   30974.000000   2.282934374822307e+06    2.282933918518888e+06   4.518696593462283e-01    4.433760000000000e-03
2015   128   30984.000000   2.282887063973093e+06    2.282886592510276e+06   4.740049171137566e-01    -2.542100000000000e-03
2015   128   30994.000000   2.282839738517479e+06    2.282839245292077e+06   4.969334317510524e-01    -3.708030000000000e-03
2015   128   31004.000000   2.282792391080285e+06    2.282791876815412e+06   5.206749837184117e-01    -6.410110000000000e-03
2015   128   31014.000000   2.282745033515464e+06    2.282744487031691e+06   5.452496624180576e-01    1.234110000000000e-03
2015   128   31024.000000   2.282697635780071e+06    2.282697075892632e+06   5.706778684832843e-01    -1.079043000000000e-02
2015   128   31034.000000   2.282650249605203e+06    2.282649643350266e+06   5.969803160676079e-01    9.274620000000001e-03
2015   128   31044.000000   2.282602825664703e+06    2.282602189356948e+06   6.241780351339128e-01    1.212972000000000e-02
2015   128   31054.000000   2.282555367658224e+06    2.282554713865370e+06   6.522923737435905e-01    1.500480000000000e-03
2015   128   31064.000000   2.282507906378050e+06    2.282507216828570e+06   6.813450003456992e-01    8.204480000000000e-03
2015   128   31074.000000   2.282460413378458e+06    2.282459698199941e+06   7.113579060661015e-01    3.820610000000000e-03
2015   128   31084.000000   2.282412899828935e+06    2.282412157933248e+06   7.423534069966112e-01    -4.577200000000000e-04
2015   128   31094.000000   2.282365368967285e+06    2.282364595982629e+06   7.743541464841448e-01    -1.369490000000000e-03
2015   128   31104.000000   2.282317814938652e+06    2.282317012302615e+06   8.073830974198651e-01    -4.747060000000000e-03
2015   128   31114.000000   2.282270246928338e+06    2.282269406848134e+06   8.414635645283289e-01    -1.383360000000000e-03
2015   128   31124.000000   2.282222649334563e+06    2.282221779574526e+06   8.766191866566312e-01    -6.859150000000000e-03
2015   128   31134.000000   2.282175038917979e+06    2.282174130437550e+06   9.128739390635534e-01    -4.393510000000000e-03
2015   128   31140.000000   2.282146470627039e+06    2.282145530442706e+06   9.351644734901274e-01    5.019860000000000e-03
2015   128   31208.000000   2.281820826157921e+06    2.281820823902061e+06   0.000000000000000e+00    2.255860000000000e-03
2015   128   31218.000000   2.281772980610476e+06    2.281772983614367e+06   0.000000000000000e+00    -3.003890000000000e-03
2015   128   31228.000000   2.281725126040017e+06    2.281725120948507e+06   0.000000000000000e+00    5.091510000000000e-03
2015   128   31238.000000   2.281677226089709e+06    2.281677235830769e+06   0.000000000000000e+00    -9.741059999999999e-03
2015   128   31248.000000   2.281629325372682e+06    2.281629328187892e+06   0.000000000000000e+00    -2.815210000000000e-03
2015   128   31258.000000   2.281581389970416e+06    2.281581397947056e+06   0.000000000000000e+00    -7.976640000000000e-03
2015   128   31268.000000   2.281533445341530e+06    2.281533445035870e+06   0.000000000000000e+00    3.056600000000000e-04
2015   128   31278.000000   2.281485476857373e+06    2.281485469382362e+06   0.000000000000000e+00    7.475010000000000e-03
2015   128   31288.000000   2.281437480286447e+06    2.281437470914967e+06   0.000000000000000e+00    9.371480000000000e-03
2015   128   31298.000000   2.281389447912361e+06    2.281389449562511e+06   0.000000000000000e+00    -1.650150000000000e-03
2015   128   31308.000000   2.281341409827587e+06    2.281341405254207e+06   0.000000000000000e+00    4.573380000000000e-03
2015   128   31318.000000   2.281293345760146e+06    2.281293337919636e+06   0.000000000000000e+00    7.840510000000000e-03
2015   128   31328.000000   2.281245252123912e+06    2.281245247488742e+06   0.000000000000000e+00    4.635170000000000e-03
2015   128   31338.000000   2.281197125314794e+06    2.281197133891814e+06   0.000000000000000e+00    -8.577019999999999e-03
2015   128   31348.000000   2.281148989112061e+06    2.281148997059481e+06   0.000000000000000e+00    -7.947420000000000e-03
2015   128   31358.000000   2.281100833972903e+06    2.281100836922694e+06   0.000000000000000e+00    -2.949790000000000e-03
2015   128   31368.000000   2.281052650634937e+06    2.281052653412717e+06   0.000000000000000e+00    -2.777780000000000e-03
2015   128   31378.000000   2.281004444299498e+06    2.281004446461118e+06   0.000000000000000e+00    -2.161620000000000e-03
2015   128   31388.000000   2.280956222286695e+06    2.280956215999755e+06   0.000000000000000e+00    6.286940000000000e-03
2015   128   31398.000000   2.280907963515352e+06    2.280907961960762e+06   0.000000000000000e+00    1.554590000000000e-03
2015   128   31408.000000   2.280859686360863e+06    2.280859684276543e+06   0.000000000000000e+00    2.084320000000000e-03
2015   128   31418.000000   2.280811385478423e+06    2.280811382879753e+06   0.000000000000000e+00    2.598670000000000e-03
2015   128   31428.000000   2.280763049163246e+06    2.280763057703296e+06   0.000000000000000e+00    -8.540050000000000e-03
2015   128   31438.000000   2.280714701525813e+06    2.280714708680303e+06   0.000000000000000e+00    -7.154490000000000e-03
2015   128   31448.000000   2.280666334825659e+06    2.280666335744129e+06   0.000000000000000e+00    -9.184700000000000e-04
2015   128   31458.000000   2.280617940879946e+06    2.280617938828336e+06   0.000000000000000e+00    2.051610000000000e-03
2015   128   31468.000000   2.280569521469704e+06    2.280569517866684e+06   0.000000000000000e+00    3.603020000000000e-03
2015   128   31478.000000   2.280521077406907e+06    2.280521072793117e+06   0.000000000000000e+00    4.613790000000000e-03
2015   128   31488.000000   2.280472610646385e+06    2.280472603541755e+06   0.000000000000000e+00    7.104630000000000e-03
2015   128   31498.000000   2.280424101764619e+06    2.280424110046879e+06   0.000000000000000e+00    -8.282260000000000e-03
2015   128   31508.000000   2.280375587215962e+06    2.280375592242922e+06   0.000000000000000e+00    -5.026960000000000e-03
2015   128   31518.000000   2.280327054925194e+06    2.280327050064454e+06   0.000000000000000e+00    4.860740000000000e-03
2015   128   31528.000000   2.280278483895636e+06    2.280278483446176e+06   0.000000000000000e+00    4.494600000000000e-04
2015   128   31538.000000   2.280229892659870e+06    2.280229892322900e+06   0.000000000000000e+00    3.369700000000000e-04
2015   128   31548.000000   2.280181280774447e+06    2.280181276629547e+06   0.000000000000000e+00    4.144900000000000e-03
2015   128   31558.000000   2.280132637802257e+06    2.280132636301127e+06   0.000000000000000e+00    1.501130000000000e-03
2015   128   31568.000000   2.280083972479864e+06    2.280083971272734e+06   0.000000000000000e+00    1.207130000000000e-03
2015   128   31578.000000   2.280035266650309e+06    2.280035281479529e+06   0.000000000000000e+00    -1.482922000000000e-02
2015   128   31588.000000   2.279986576525813e+06    2.279986566856733e+06   0.000000000000000e+00    9.669080000000000e-03
2015   128   31598.000000   2.279937822792761e+06    2.279937827339611e+06   0.000000000000000e+00    -4.546850000000000e-03
2015   128   31608.000000   2.279889069066985e+06    2.279889062863464e+06   0.000000000000000e+00    6.203520000000000e-03
2015   128   31618.000000   2.279840271577718e+06    2.279840273363618e+06   0.000000000000000e+00    -1.785900000000000e-03
2015   128   31628.000000   2.279791450172475e+06    2.279791458775405e+06   0.000000000000000e+00    -8.602930000000000e-03
2015   128   31638.000000   2.279742626264171e+06    2.279742619034161e+06   0.000000000000000e+00    7.230010000000000e-03
2015   128   31648.000000   2.279693752940069e+06    2.279693754075210e+06   0.000000000000000e+00    -1.135140000000000e-03
2015   128   31658.000000   2.279644872680550e+06    2.279644863833850e+06   0.000000000000000e+00    8.846700000000001e-03
2015   128   31668.000000   2.279595944224256e+06    2.279595948245346e+06   0.000000000000000e+00    -4.021090000000000e-03
2015   128   31678.000000   2.279547005495416e+06    2.279547007244917e+06   0.000000000000000e+00    -1.749500000000000e-03
2015   128   31688.000000   2.279498029268370e+06    2.279498040767720e+06   0.000000000000000e+00    -1.149935000000000e-02
2015   128   31698.000000   2.279449051987228e+06    2.279449048748848e+06   0.000000000000000e+00    3.238380000000000e-03
2015   128   31708.000000   2.279400035978036e+06    2.279400031123306e+06   0.000000000000000e+00    4.854730000000000e-03
2015   128   31718.000000   2.279350991797481e+06    2.279350987826011e+06   0.000000000000000e+00    3.971470000000000e-03
2015   128   31728.000000   2.279301928832891e+06    2.279301918791771e+06   0.000000000000000e+00    1.004112000000000e-02
2015   128   31738.000000   2.279252823580192e+06    2.279252823955283e+06   0.000000000000000e+00    -3.750900000000000e-04
2015   128   31748.000000   2.279203691939460e+06    2.279203703251109e+06   0.000000000000000e+00    -1.131165000000000e-02
2015   128   31758.000000   2.279154556834429e+06    2.279154556613679e+06   0.000000000000000e+00    2.207500000000000e-04
2015   128   31768.000000   2.279105380138946e+06    2.279105383977266e+06   0.000000000000000e+00    -3.838320000000000e-03
2015   128   31778.000000   2.279056181702012e+06    2.279056185275982e+06   0.000000000000000e+00    -3.573970000000000e-03
2015   128   31788.000000   2.279006965456986e+06    2.279006960443766e+06   0.000000000000000e+00    5.013220000000000e-03
2015   128   31798.000000   2.278957717909569e+06    2.278957709414369e+06   0.000000000000000e+00    8.495200000000000e-03
2015   128   31808.000000   2.278908436025085e+06    2.278908432121345e+06   0.000000000000000e+00    3.903740000000000e-03
2015   128   31818.000000   2.278859123655790e+06    2.278859128498040e+06   0.000000000000000e+00    -4.842250000000000e-03
2015   128   31828.000000   2.278809799662367e+06    2.278809798477578e+06   0.000000000000000e+00    1.184790000000000e-03
2015   128   31838.000000   2.278760432000048e+06    2.278760441992848e+06   0.000000000000000e+00    -9.992800000000000e-03
2015   128   31848.000000   2.278711058832631e+06    2.278711058976500e+06   0.000000000000000e+00    -1.438700000000000e-04
2015   128   31858.000000   2.278661648063726e+06    2.278661649360926e+06   0.000000000000000e+00    -1.297200000000000e-03
2015   128   31868.000000   2.278612208955588e+06    2.278612213078248e+06   0.000000000000000e+00    -4.122660000000000e-03
2015   128   31878.000000   2.278562748870154e+06    2.278562750060314e+06   0.000000000000000e+00    -1.190160000000000e-03
2015   128   31888.000000   2.278513260560077e+06    2.278513260238677e+06   0.000000000000000e+00    3.214000000000000e-04
2015   128   31898.000000   2.278463749144181e+06    2.278463743544591e+06   0.000000000000000e+00    5.599590000000000e-03
2015   128   31908.000000   2.278414192261914e+06    2.278414199908994e+06   0.000000000000000e+00    -7.647080000000000e-03
2015   128   31918.000000   2.278364631149559e+06    2.278364629262500e+06   0.000000000000000e+00    1.887060000000000e-03
2015   128   31928.000000   2.278315037246236e+06    2.278315031535386e+06   0.000000000000000e+00    5.710850000000000e-03
2015   128   31938.000000   2.278265409083979e+06    2.278265406657579e+06   0.000000000000000e+00    2.426400000000000e-03
2015   128   31948.000000   2.278215760077578e+06    2.278215754558648e+06   0.000000000000000e+00    5.518930000000000e-03
2015   128   31958.000000   2.278166075942038e+06    2.278166075167788e+06   0.000000000000000e+00    7.742500000000000e-04
2015   128   31968.000000   2.278116363534422e+06    2.278116368413812e+06   0.000000000000000e+00    -4.879390000000000e-03
2015   128   31978.000000   2.278066630712196e+06    2.278066634225136e+06   0.000000000000000e+00    -3.512940000000000e-03
2015   128   31988.000000   2.278016875760613e+06    2.278016872529773e+06   0.000000000000000e+00    3.230840000000000e-03
2015   128   31998.000000   2.277967083524834e+06    2.277967083255314e+06   0.000000000000000e+00    2.695200000000000e-04
2015   128   32008.000000   2.277917252101612e+06    2.277917266328922e+06   0.000000000000000e+00    -1.422731000000000e-02
2015   128   32018.000000   2.277867424132158e+06    2.277867421677317e+06   0.000000000000000e+00    2.454840000000000e-03
2015   128   32028.000000   2.277817560915609e+06    2.277817549226769e+06   0.000000000000000e+00    1.168884000000000e-02
2015   128   32038.000000   2.277767651843480e+06    2.277767648903080e+06   0.000000000000000e+00    2.940400000000000e-03
2015   128   32048.000000   2.277717717510926e+06    2.277717720631576e+06   0.000000000000000e+00    -3.120650000000000e-03
2015   128   32058.000000   2.277667766180047e+06    2.277667764337097e+06   0.000000000000000e+00    1.842950000000000e-03
2015   128   32068.000000   2.277617782833891e+06    2.277617779943982e+06   0.000000000000000e+00    2.889910000000000e-03
2015   128   32078.000000   2.277567770710498e+06    2.277567767376058e+06   0.000000000000000e+00    3.334440000000000e-03
2015   128   32088.000000   2.277517723463883e+06    2.277517726556633e+06   0.000000000000000e+00    -3.092750000000000e-03
2015   128   32098.000000   2.277467664391695e+06    2.277467657408475e+06   0.000000000000000e+00    6.983220000000000e-03
2015   128   32108.000000   2.277417549420591e+06    2.277417559853810e+06   0.000000000000000e+00    -1.043322000000000e-02
2015   128   32118.000000   2.277367431997216e+06    2.277367433814306e+06   0.000000000000000e+00    -1.817090000000000e-03
2015   128   32128.000000   2.277317283969680e+06    2.277317279211060e+06   0.000000000000000e+00    4.758620000000000e-03
2015   128   32138.000000   2.277267096359769e+06    2.277267095964589e+06   0.000000000000000e+00    3.951800000000000e-04
2015   128   32148.000000   2.277216887807968e+06    2.277216883994818e+06   0.000000000000000e+00    3.813150000000000e-03
2015   128   32158.000000   2.277166642000068e+06    2.277166643221068e+06   0.000000000000000e+00    -1.221000000000000e-03
2015   128   32168.000000   2.277116371860683e+06    2.277116373562044e+06   0.000000000000000e+00    -1.701360000000000e-03
2015   128   32178.000000   2.277066062753201e+06    2.277066074935821e+06   0.000000000000000e+00    -1.218262000000000e-02
2015   128   32188.000000   2.277015744829341e+06    2.277015747259841e+06   0.000000000000000e+00    -2.430500000000000e-03
2015   128   32198.000000   2.276965388705120e+06    2.276965390450891e+06   0.000000000000000e+00    -1.745770000000000e-03
2015   128   32208.000000   2.276915004343495e+06    2.276915004425095e+06   0.000000000000000e+00    -8.160000000000000e-05
2015   128   32218.000000   2.276864601510318e+06    2.276864589097908e+06   0.000000000000000e+00    1.241241000000000e-02
2015   128   32228.000000   2.276814140450175e+06    2.276814144384095e+06   0.000000000000000e+00    -3.933920000000000e-03
2015   128   32238.000000   2.276763667795347e+06    2.276763670197727e+06   0.000000000000000e+00    -2.402380000000000e-03
2015   128   32248.000000   2.276713156127734e+06    2.276713166452164e+06   0.000000000000000e+00    -1.032443000000000e-02
2015   128   32258.000000   2.276662639281407e+06    2.276662633060047e+06   0.000000000000000e+00    6.221360000000000e-03
2015   128   32268.000000   2.276612081746726e+06    2.276612069933286e+06   0.000000000000000e+00    1.181344000000000e-02
2015   128   32278.000000   2.276561481369847e+06    2.276561476983047e+06   0.000000000000000e+00    4.386800000000000e-03
2015   128   32288.000000   2.276510850004580e+06    2.276510854119740e+06   0.000000000000000e+00    -4.115160000000000e-03
2015   128   32298.000000   2.276460196957689e+06    2.276460201253009e+06   0.000000000000000e+00    -4.295320000000000e-03
2015   128   32308.000000   2.276409520675599e+06    2.276409518291719e+06   0.000000000000000e+00    2.383880000000000e-03
2015   128   32318.000000   2.276358810412878e+06    2.276358805143948e+06   0.000000000000000e+00    5.268930000000000e-03
2015   128   32328.000000   2.276308050805728e+06    2.276308061716968e+06   0.000000000000000e+00    -1.091124000000000e-02
2015   128   32337.000000   2.276262360020221e+06    2.276262366666671e+06   0.000000000000000e+00    -6.646450000000000e-03
2015   128   32409.000000   2.275895913492414e+06    2.275895915562334e+06   0.000000000000000e+00    -2.069920000000000e-03
2015   128   32419.000000   2.275844894695252e+06    2.275844897198972e+06   0.000000000000000e+00    -2.503720000000000e-03
2015   128   32429.000000   2.275793848046530e+06    2.275793847841530e+06   0.000000000000000e+00    2.050000000000000e-04
2015   128   32439.000000   2.275742769990242e+06    2.275742767413701e+06   0.000000000000000e+00    2.576540000000000e-03
2015   128   32449.000000   2.275691662324959e+06    2.275691655838829e+06   0.000000000000000e+00    6.486130000000000e-03
2015   128   32459.000000   2.275640513326657e+06    2.275640513039907e+06   0.000000000000000e+00    2.867500000000000e-04
2015   128   32469.000000   2.275589330352674e+06    2.275589338939574e+06   0.000000000000000e+00    -8.586900000000000e-03
2015   128   32479.000000   2.275538137335273e+06    2.275538133460123e+06   0.000000000000000e+00    3.875150000000000e-03
2015   128   32489.000000   2.275486895328335e+06    2.275486896523495e+06   0.000000000000000e+00    -1.195160000000000e-03
2015   128   32499.000000   2.275435624653795e+06    2.275435628051285e+06   0.000000000000000e+00    -3.397490000000000e-03
2015   128   32509.000000   2.275384318266185e+06    2.275384327964736e+06   0.000000000000000e+00    -9.698550000000000e-03
2015   128   32519.000000   2.275332998366385e+06    2.275332996184745e+06   0.000000000000000e+00    2.181640000000000e-03
2015   128   32529.000000   2.275281632360343e+06    2.275281632631863e+06   0.000000000000000e+00    -2.715200000000000e-04
2015   128   32539.000000   2.275230241355474e+06    2.275230237226293e+06   0.000000000000000e+00    4.129180000000000e-03
2015   128   32549.000000   2.275178810239083e+06    2.275178809887893e+06   0.000000000000000e+00    3.511900000000000e-04
2015   128   32559.000000   2.275127352466002e+06    2.275127350536172e+06   0.000000000000000e+00    1.929830000000000e-03
2015   128   32569.000000   2.275075866016080e+06    2.275075859090300e+06   0.000000000000000e+00    6.925780000000000e-03
2015   128   32579.000000   2.275024345248557e+06    2.275024335469097e+06   0.000000000000000e+00    9.779460000000000e-03
2015   128   32589.000000   2.274972774391674e+06    2.274972779591043e+06   0.000000000000000e+00    -5.199370000000000e-03
2015   128   32599.000000   2.274921188127824e+06    2.274921191374274e+06   0.000000000000000e+00    -3.246450000000000e-03
2015   128   32609.000000   2.274869572202912e+06    2.274869570736581e+06   0.000000000000000e+00    1.466330000000000e-03
2015   128   32619.000000   2.274817914559357e+06    2.274817917595417e+06   0.000000000000000e+00    -3.036060000000000e-03
2015   128   32629.000000   2.274766231388659e+06    2.274766231867889e+06   0.000000000000000e+00    -4.792300000000000e-04
2015   128   32639.000000   2.274714513540516e+06    2.274714513470766e+06   0.000000000000000e+00    6.975000000000000e-05
2015   128   32649.000000   2.274662758673697e+06    2.274662762320477e+06   0.000000000000000e+00    -3.646780000000000e-03
2015   128   32659.000000   2.274610982063768e+06    2.274610978333108e+06   0.000000000000000e+00    3.730660000000000e-03
2015   128   32669.000000   2.274559162544880e+06    2.274559161424410e+06   0.000000000000000e+00    1.120470000000000e-03
2015   128   32679.000000   2.274507307514730e+06    2.274507311509790e+06   0.000000000000000e+00    -3.995060000000000e-03
2015   128   32689.000000   2.274455437211484e+06    2.274455428504324e+06   0.000000000000000e+00    8.707160000000000e-03
2015   128   32699.000000   2.274403504407912e+06    2.274403512322742e+06   0.000000000000000e+00    -7.914829999999999e-03
2015   128   32709.000000   2.274351566612635e+06    2.274351562879445e+06   0.000000000000000e+00    3.733190000000000e-03
2015   128   32719.000000   2.274299581315082e+06    2.274299580088492e+06   0.000000000000000e+00    1.226590000000000e-03
2015   128   32729.000000   2.274247550741728e+06    2.274247563863608e+06   0.000000000000000e+00    -1.312188000000000e-02
2015   128   32739.000000   2.274195505119643e+06    2.274195514118183e+06   0.000000000000000e+00    -8.998539999999999e-03
2015   128   32749.000000   2.274143426517363e+06    2.274143430765273e+06   0.000000000000000e+00    -4.247910000000000e-03
2015   128   32759.000000   2.274091320173827e+06    2.274091313717597e+06   0.000000000000000e+00    6.456230000000000e-03
2015   128   32769.000000   2.274039161661213e+06    2.274039162887543e+06   0.000000000000000e+00    -1.226330000000000e-03
2015   128   32779.000000   2.273986981398866e+06    2.273986978187166e+06   0.000000000000000e+00    3.211700000000000e-03
2015   128   32789.000000   2.273934766272177e+06    2.273934759528187e+06   0.000000000000000e+00    6.743990000000000e-03
2015   128   32799.000000   2.273882512028005e+06    2.273882506821995e+06   0.000000000000000e+00    5.206010000000000e-03
2015   128   32809.000000   2.273830224047430e+06    2.273830219979650e+06   0.000000000000000e+00    4.067780000000000e-03
2015   128   32819.000000   2.273777903095838e+06    2.273777898911878e+06   0.000000000000000e+00    4.183960000000000e-03
2015   128   32829.000000   2.273725541480077e+06    2.273725543529077e+06   0.000000000000000e+00    -2.049000000000000e-03
2015   128   32839.000000   2.273673151030865e+06    2.273673153741315e+06   0.000000000000000e+00    -2.710450000000000e-03
2015   128   32849.000000   2.273620732839111e+06    2.273620729458331e+06   0.000000000000000e+00    3.380780000000000e-03
2015   128   32859.000000   2.273568268209384e+06    2.273568270589534e+06   0.000000000000000e+00    -2.380150000000000e-03
2015   128   32869.000000   2.273515771659237e+06    2.273515777044007e+06   0.000000000000000e+00    -5.384770000000000e-03
2015   128   32879.000000   2.273463248723955e+06    2.273463248730505e+06   0.000000000000000e+00    -6.550000000000000e-06
2015   128   32889.000000   2.273410682391695e+06    2.273410685557455e+06   0.000000000000000e+00    -3.165760000000000e-03
2015   128   32899.000000   2.273358084004260e+06    2.273358087432960e+06   0.000000000000000e+00    -3.428700000000000e-03
2015   128   32909.000000   2.273305461698014e+06    2.273305454264794e+06   0.000000000000000e+00    7.433220000000000e-03
2015   128   32919.000000   2.273252791604640e+06    2.273252785960410e+06   0.000000000000000e+00    5.644230000000000e-03
2015   128   32929.000000   2.273200084935894e+06    2.273200082426934e+06   0.000000000000000e+00    2.508960000000000e-03
2015   128   32939.000000   2.273147347016796e+06    2.273147343571166e+06   0.000000000000000e+00    3.445630000000000e-03
2015   128   32949.000000   2.273094565943168e+06    2.273094569299588e+06   0.000000000000000e+00    -3.356420000000000e-03
2015   128   32959.000000   2.273041758955554e+06    2.273041759518354e+06   0.000000000000000e+00    -5.628000000000000e-04
2015   128   32969.000000   2.272988918928398e+06    2.272988914133298e+06   0.000000000000000e+00    4.795100000000000e-03
2015   128   32979.000000   2.272936035889442e+06    2.272936033049932e+06   0.000000000000000e+00    2.839510000000000e-03
2015   128   32989.000000   2.272883108858397e+06    2.272883116173447e+06   0.000000000000000e+00    -7.315050000000000e-03
2015   128   32999.000000   2.272830160384464e+06    2.272830163408713e+06   0.000000000000000e+00    -3.024250000000000e-03
2015   128   33009.000000   2.272777177009911e+06    2.272777174660281e+06   0.000000000000000e+00    2.349630000000000e-03
2015   128   33019.000000   2.272724150235160e+06    2.272724149832380e+06   0.000000000000000e+00    4.027800000000000e-04
2015   128   33029.000000   2.272671086986512e+06    2.272671088828922e+06   0.000000000000000e+00    -1.842410000000000e-03
2015   128   33039.000000   2.272617991011312e+06    2.272617991553502e+06   0.000000000000000e+00    -5.421900000000000e-04
2015   128   33049.000000   2.272564846317134e+06    2.272564857909394e+06   0.000000000000000e+00    -1.159226000000000e-02
2015   128   33059.000000   2.272511681903947e+06    2.272511687799557e+06   0.000000000000000e+00    -5.895610000000000e-03
2015   128   33069.000000   2.272458469164912e+06    2.272458481126632e+06   0.000000000000000e+00    -1.196172000000000e-02
2015   128   33079.000000   2.272405238048425e+06    2.272405237792945e+06   0.000000000000000e+00    2.554800000000000e-04
2015   128   33089.000000   2.272351959594856e+06    2.272351957700506e+06   0.000000000000000e+00    1.894350000000000e-03
2015   128   33099.000000   2.272298641019581e+06    2.272298640751011e+06   0.000000000000000e+00    2.685700000000000e-04
2015   128   33109.000000   2.272245294659561e+06    2.272245286845841e+06   0.000000000000000e+00    7.813720000000000e-03
2015   128   33119.000000   2.272191907457910e+06    2.272191895886060e+06   0.000000000000000e+00    1.157185000000000e-02
2015   128   33129.000000   2.272138471689605e+06    2.272138467772425e+06   0.000000000000000e+00    3.917180000000000e-03
2015   128   33139.000000   2.272085008275516e+06    2.272085002405376e+06   0.000000000000000e+00    5.870140000000000e-03
2015   128   33149.000000   2.272031494200620e+06    2.272031499685040e+06   0.000000000000000e+00    -5.484420000000000e-03
2015   128   33159.000000   2.271977963426717e+06    2.271977959511237e+06   0.000000000000000e+00    3.915480000000000e-03
2015   128   33169.000000   2.271924380657832e+06    2.271924381783471e+06   0.000000000000000e+00    -1.125640000000000e-03
2015   128   33179.000000   2.271870764303100e+06    2.271870766400940e+06   0.000000000000000e+00    -2.097840000000000e-03
2015   128   33189.000000   2.271817117305809e+06    2.271817113262529e+06   0.000000000000000e+00    4.043280000000000e-03
2015   128   33199.000000   2.271763422816093e+06    2.271763422266813e+06   0.000000000000000e+00    5.492800000000000e-04
2015   128   33209.000000   2.271709699725662e+06    2.271709693312062e+06   0.000000000000000e+00    6.413600000000000e-03
2015   128   33219.000000   2.271655922641005e+06    2.271655926296236e+06   0.000000000000000e+00    -3.655230000000000e-03
2015   128   33229.000000   2.271602109969645e+06    2.271602121116985e+06   0.000000000000000e+00    -1.114734000000000e-02
2015   128   33239.000000   2.271548276929016e+06    2.271548277671656e+06   0.000000000000000e+00    -7.426400000000000e-04
2015   128   33249.000000   2.271494397270417e+06    2.271494395857287e+06   0.000000000000000e+00    1.413130000000000e-03
2015   128   33259.000000   2.271440470708760e+06    2.271440475570610e+06   0.000000000000000e+00    -4.861850000000000e-03
2015   128   33269.000000   2.271386511373173e+06    2.271386516708054e+06   0.000000000000000e+00    -5.334880000000000e-03
2015   128   33279.000000   2.271332525277600e+06    2.271332519165740e+06   0.000000000000000e+00    6.111860000000000e-03
2015   128   33289.000000   2.271278488320797e+06    2.271278482839487e+06   0.000000000000000e+00    5.481310000000000e-03
2015   128   33299.000000   2.271224404086419e+06    2.271224407624809e+06   0.000000000000000e+00    -3.538390000000000e-03
2015   128   33309.000000   2.271170290652009e+06    2.271170293416919e+06   0.000000000000000e+00    -2.764910000000000e-03
2015   128   33319.000000   2.271116139968206e+06    2.271116140110726e+06   0.000000000000000e+00    -1.425200000000000e-04
2015   128   33329.000000   2.271061953275855e+06    2.271061947600835e+06   0.000000000000000e+00    5.675020000000000e-03
2015   128   33339.000000   2.271007727488154e+06    2.271007715781554e+06   0.000000000000000e+00    1.170660000000000e-02
2015   128   33349.000000   2.270953445865317e+06    2.270953444546887e+06   0.000000000000000e+00    1.318430000000000e-03
2015   128   33359.000000   2.270899136621478e+06    2.270899133790539e+06   0.000000000000000e+00    2.830940000000000e-03
2015   128   33369.000000   2.270844782410714e+06    2.270844783405914e+06   0.000000000000000e+00    -9.951999999999999e-04
2015   128   33379.000000   2.270790388702729e+06    2.270790393286119e+06   0.000000000000000e+00    -4.583390000000000e-03
2015   128   33389.000000   2.270735961209181e+06    2.270735963323961e+06   0.000000000000000e+00    -2.114780000000000e-03
2015   128   33399.000000   2.270681494668739e+06    2.270681493411949e+06   0.000000000000000e+00    1.256790000000000e-03
2015   128   33409.000000   2.270626966437625e+06    2.270626983442295e+06   0.000000000000000e+00    -1.700467000000000e-02
2015   128   33419.000000   2.270572438311904e+06    2.270572433306914e+06   0.000000000000000e+00    5.004990000000000e-03
2015   128   33429.000000   2.270517835712494e+06    2.270517842897424e+06   0.000000000000000e+00    -7.184930000000000e-03
2015   128   33439.000000   2.270463217566010e+06    2.270463212105149e+06   0.000000000000000e+00    5.460860000000000e-03
2015   128   33449.000000   2.270408537029007e+06    2.270408540821117e+06   0.000000000000000e+00    -3.792110000000000e-03
2015   128   33459.000000   2.270353824328620e+06    2.270353828936059e+06   0.000000000000000e+00    -4.607440000000000e-03
2015   128   33469.000000   2.270299081679507e+06    2.270299076340417e+06   0.000000000000000e+00    5.339090000000000e-03
2015   128   33479.000000   2.270244283814034e+06    2.270244282924334e+06   0.000000000000000e+00    8.897000000000000e-04
2015   128   33489.000000   2.270189455368664e+06    2.270189448577664e+06   0.000000000000000e+00    6.791000000000000e-03
2015   128   33499.000000   2.270134576524967e+06    2.270134573189967e+06   0.000000000000000e+00    3.335000000000000e-03
2015   128   33509.000000   2.270079659117653e+06    2.270079656650512e+06   0.000000000000000e+00    2.467140000000000e-03
2015   128   33519.000000   2.270024699034947e+06    2.270024698848277e+06   0.000000000000000e+00    1.866700000000000e-04
2015   128   33529.000000   2.269969699398337e+06    2.269969699671947e+06   0.000000000000000e+00    -2.736100000000000e-04
2015   128   33536.500000   2.269928425749165e+06    2.269928423070825e+06   0.000000000000000e+00    2.678340000000000e-03
