2015092024533  1.326806824442928e-10     -4.682378435347293e-07      5.554780157972540e-04  -2.696297834485796e-01     5.600062254732341e+01      -4.408129996068548e+03  8.286335099939331e+04
2015092030003  3.078058938386683e-17     -1.331704069702713e-14      2.601212386447825e-11  -1.718414564182324e-07     1.769326861436820e-04      -5.390711387149431e-02  -2.396984298525730e+00
2015092032004  1.751864559710947e-16     -2.750365981268511e-13      -1.133780178028213e-10  3.353040617473679e-07     -1.258865251611678e-04      1.798132649774100e-03  4.665579859996941e-01
2015092034004  7.048830891871764e-16     -2.229090007710743e-12      2.472061730101141e-09  -1.085050342311638e-06     1.292458528465126e-04      4.124830451112830e-03  -8.026045639542843e-01
2015092040003  -4.353688386455193e-16     1.224235009433217e-12      -1.089564014149528e-09  2.586792805822318e-07     5.816827289654575e-05      -1.533587890985672e-02  -1.375298519505025e+00
2015092042004  -3.117548356856261e-16     1.431914804881368e-12      -2.440545690682056e-09  1.896343824639580e-06     -6.506332122505709e-04      7.085986859963235e-02  -2.068331970701534e+00
2015092044004  5.749810807408073e-16     -2.269254267293384e-12      3.321844958651196e-09  -2.194953843981621e-06     6.210779931179257e-04      -4.720358778862559e-02  4.922994527588057e-01
2015092050004  -7.507016320173917e-16     2.786165311350241e-12      -3.806806767094440e-09  2.287923814022371e-06     -5.420403691148446e-04      2.507710271581659e-02  -7.223446729595950e-01
2015092052004  -2.091659383845695e-17     -2.222963429645675e-13      6.020429304651833e-10  -4.513485096009678e-07     9.539242573923038e-05      3.029117611339815e-03  2.033135283806439e+00
2015092054004  1.209342766532563e-16     -6.271498722814758e-13      1.164001537146738e-09  -9.590605358888422e-07     3.382987031940085e-04      -3.822608711512303e-02  4.336038558237657e-01
2015092060004  -1.785448680282202e-17     2.810570123019804e-13      -7.711872189610086e-10  7.972006022232488e-07     -3.303309433546006e-04      3.277808250561337e-02  -1.367612078910927e+00
2015092062004  -2.344155418176461e-16     5.627488402341355e-13      -3.688669908927528e-10  -1.396827948961739e-08     6.757898849158596e-05      -1.081851313211514e-02  -3.286010430933052e-01
